<?xml version="1.0" encoding="UTF-8" standalone="no"?>
<svg width="20px" height="20px" viewBox="0 0 20 20" version="1.1" xmlns="http://www.w3.org/2000/svg" xmlns:xlink="http://www.w3.org/1999/xlink" xmlns:sketch="http://www.bohemiancoding.com/sketch/ns">
    <!-- Generator: Sketch 3.3 (11970) - http://www.bohemiancoding.com/sketch -->
    <title>Shape Copy 6</title>
    <desc>Created with Sketch.</desc>
    <defs></defs>
    <g id="Page-1" stroke="none" stroke-width="1" fill="none" fill-rule="evenodd" sketch:type="MSPage">
        <g id="iPhone-6-Plus---200-char-max" sketch:type="MSArtboardGroup" transform="translate(-319.000000, -528.000000)" fill="#FFFFFF">
            <path d="M338.504414,547.38026 L334.476577,547.38026 L334.476577,540.264414 C334.476577,539.152157 333.574915,538.250495 332.462658,538.250495 C331.350402,538.250495 330.448739,539.152157 330.448739,540.264414 L330.448739,547.38026 L326.420902,547.38026 L326.420902,535.296748 L330.448739,535.296748 L330.448739,536.907883 C331.120046,535.780088 332.583493,535.028225 333.805271,535.028225 C336.400536,535.028225 338.504414,537.132104 338.504414,539.727369 L338.504414,547.38026 Z M321.721758,533.027733 C320.379146,533.027733 319.29163,531.940216 319.29163,530.597604 C319.29163,529.255481 320.379635,528.167475 321.721758,528.167475 C323.064371,528.167475 324.151887,529.254991 324.151887,530.597604 C324.151887,531.939727 323.063881,533.027733 321.721758,533.027733 L321.721758,533.027733 Z M323.735677,547.38026 L319.707839,547.38026 L319.707839,535.296748 L323.735677,535.296748 L323.735677,547.38026 Z" id="Shape-Copy-6" sketch:type="MSShapeGroup"></path>
        </g>
    </g>
</svg>